{
	"frames": {
		"1-sztuka-zlota.png": {
			"frame": {
				"x": 1,
				"y": 1,
				"w": 124,
				"h": 109
			},
			"rotated": false,
			"trimmed": false,
			"spriteSourceSize": {
				"x": 0,
				"y": 0,
				"w": 124,
				"h": 109
			},
			"sourceSize": {
				"w": 124,
				"h": 109
			}
		},
		"2-sztuki-zlota.png": {
			"frame": {
				"x": 127,
				"y": 1,
				"w": 124,
				"h": 108
			},
			"rotated": false,
			"trimmed": false,
			"spriteSourceSize": {
				"x": 0,
				"y": 0,
				"w": 124,
				"h": 108
			},
			"sourceSize": {
				"w": 124,
				"h": 108
			}
		},
		"alchemik.png": {
			"frame": {
				"x": 253,
				"y": 1,
				"w": 124,
				"h": 108
			},
			"rotated": false,
			"trimmed": false,
			"spriteSourceSize": {
				"x": 0,
				"y": 0,
				"w": 124,
				"h": 108
			},
			"sourceSize": {
				"w": 124,
				"h": 108
			}
		},
		"arondight.png": {
			"frame": {
				"x": 379,
				"y": 1,
				"w": 124,
				"h": 108
			},
			"rotated": false,
			"trimmed": false,
			"spriteSourceSize": {
				"x": 0,
				"y": 0,
				"w": 124,
				"h": 108
			},
			"sourceSize": {
				"w": 124,
				"h": 108
			}
		},
		"bojowy-rumak.png": {
			"frame": {
				"x": 505,
				"y": 1,
				"w": 124,
				"h": 108
			},
			"rotated": false,
			"trimmed": false,
			"spriteSourceSize": {
				"x": 0,
				"y": 0,
				"w": 124,
				"h": 108
			},
			"sourceSize": {
				"w": 124,
				"h": 108
			}
		},
		"burza-siedmiu-slonc.png": {
			"frame": {
				"x": 631,
				"y": 1,
				"w": 124,
				"h": 108
			},
			"rotated": false,
			"trimmed": false,
			"spriteSourceSize": {
				"x": 0,
				"y": 0,
				"w": 124,
				"h": 108
			},
			"sourceSize": {
				"w": 124,
				"h": 108
			}
		},
		"chochlik.png": {
			"frame": {
				"x": 757,
				"y": 1,
				"w": 124,
				"h": 108
			},
			"rotated": false,
			"trimmed": false,
			"spriteSourceSize": {
				"x": 0,
				"y": 0,
				"w": 124,
				"h": 108
			},
			"sourceSize": {
				"w": 124,
				"h": 108
			}
		},
		"cudotworca.png": {
			"frame": {
				"x": 883,
				"y": 1,
				"w": 124,
				"h": 108
			},
			"rotated": false,
			"trimmed": false,
			"spriteSourceSize": {
				"x": 0,
				"y": 0,
				"w": 124,
				"h": 108
			},
			"sourceSize": {
				"w": 124,
				"h": 108
			}
		},
		"cyklop.png": {
			"frame": {
				"x": 1009,
				"y": 1,
				"w": 124,
				"h": 108
			},
			"rotated": false,
			"trimmed": false,
			"spriteSourceSize": {
				"x": 0,
				"y": 0,
				"w": 124,
				"h": 108
			},
			"sourceSize": {
				"w": 124,
				"h": 108
			}
		},
		"czarna-hybryda.png": {
			"frame": {
				"x": 1135,
				"y": 1,
				"w": 124,
				"h": 108
			},
			"rotated": false,
			"trimmed": false,
			"spriteSourceSize": {
				"x": 0,
				"y": 0,
				"w": 124,
				"h": 108
			},
			"sourceSize": {
				"w": 124,
				"h": 108
			}
		},
		"czarodziej.png": {
			"frame": {
				"x": 127,
				"y": 111,
				"w": 124,
				"h": 108
			},
			"rotated": false,
			"trimmed": false,
			"spriteSourceSize": {
				"x": 0,
				"y": 0,
				"w": 124,
				"h": 108
			},
			"sourceSize": {
				"w": 124,
				"h": 108
			}
		},
		"czarodziejska-kosc.png": {
			"frame": {
				"x": 253,
				"y": 111,
				"w": 124,
				"h": 108
			},
			"rotated": false,
			"trimmed": false,
			"spriteSourceSize": {
				"x": 0,
				"y": 0,
				"w": 124,
				"h": 108
			},
			"sourceSize": {
				"w": 124,
				"h": 108
			}
		},
		"czerwona-hybryda.png": {
			"frame": {
				"x": 379,
				"y": 111,
				"w": 124,
				"h": 108
			},
			"rotated": false,
			"trimmed": false,
			"spriteSourceSize": {
				"x": 0,
				"y": 0,
				"w": 124,
				"h": 108
			},
			"sourceSize": {
				"w": 124,
				"h": 108
			}
		},
		"danina.png": {
			"frame": {
				"x": 505,
				"y": 111,
				"w": 124,
				"h": 108
			},
			"rotated": false,
			"trimmed": false,
			"spriteSourceSize": {
				"x": 0,
				"y": 0,
				"w": 124,
				"h": 108
			},
			"sourceSize": {
				"w": 124,
				"h": 108
			}
		},
		"demon.png": {
			"frame": {
				"x": 631,
				"y": 111,
				"w": 124,
				"h": 108
			},
			"rotated": false,
			"trimmed": false,
			"spriteSourceSize": {
				"x": 0,
				"y": 0,
				"w": 124,
				"h": 108
			},
			"sourceSize": {
				"w": 124,
				"h": 108
			}
		},
		"diament-krolow.png": {
			"frame": {
				"x": 757,
				"y": 111,
				"w": 124,
				"h": 108
			},
			"rotated": false,
			"trimmed": false,
			"spriteSourceSize": {
				"x": 0,
				"y": 0,
				"w": 124,
				"h": 108
			},
			"sourceSize": {
				"w": 124,
				"h": 108
			}
		},
		"dobre-bostwo.png": {
			"frame": {
				"x": 1261,
				"y": 1,
				"w": 121,
				"h": 108
			},
			"rotated": false,
			"trimmed": false,
			"spriteSourceSize": {
				"x": 0,
				"y": 0,
				"w": 121,
				"h": 108
			},
			"sourceSize": {
				"w": 121,
				"h": 108
			}
		},
		"drzewo-zycia.png": {
			"frame": {
				"x": 883,
				"y": 111,
				"w": 124,
				"h": 108
			},
			"rotated": false,
			"trimmed": false,
			"spriteSourceSize": {
				"x": 0,
				"y": 0,
				"w": 124,
				"h": 108
			},
			"sourceSize": {
				"w": 124,
				"h": 108
			}
		},
		"duch-ciemnosci.png": {
			"frame": {
				"x": 1009,
				"y": 111,
				"w": 124,
				"h": 108
			},
			"rotated": false,
			"trimmed": false,
			"spriteSourceSize": {
				"x": 0,
				"y": 0,
				"w": 124,
				"h": 108
			},
			"sourceSize": {
				"w": 124,
				"h": 108
			}
		},
		"duch-zaglady.png": {
			"frame": {
				"x": 1135,
				"y": 111,
				"w": 124,
				"h": 108
			},
			"rotated": false,
			"trimmed": false,
			"spriteSourceSize": {
				"x": 0,
				"y": 0,
				"w": 124,
				"h": 108
			},
			"sourceSize": {
				"w": 124,
				"h": 108
			}
		},
		"dziki-rumak.png": {
			"frame": {
				"x": 1,
				"y": 221,
				"w": 124,
				"h": 108
			},
			"rotated": false,
			"trimmed": false,
			"spriteSourceSize": {
				"x": 0,
				"y": 0,
				"w": 124,
				"h": 108
			},
			"sourceSize": {
				"w": 124,
				"h": 108
			}
		},
		"elflin.png": {
			"frame": {
				"x": 127,
				"y": 221,
				"w": 124,
				"h": 108
			},
			"rotated": false,
			"trimmed": false,
			"spriteSourceSize": {
				"x": 0,
				"y": 0,
				"w": 124,
				"h": 108
			},
			"sourceSize": {
				"w": 124,
				"h": 108
			}
		},
		"eliksir-sily.png": {
			"frame": {
				"x": 253,
				"y": 221,
				"w": 124,
				"h": 108
			},
			"rotated": false,
			"trimmed": false,
			"spriteSourceSize": {
				"x": 0,
				"y": 0,
				"w": 124,
				"h": 108
			},
			"sourceSize": {
				"w": 124,
				"h": 108
			}
		},
		"eremita.png": {
			"frame": {
				"x": 379,
				"y": 221,
				"w": 124,
				"h": 108
			},
			"rotated": false,
			"trimmed": false,
			"spriteSourceSize": {
				"x": 0,
				"y": 0,
				"w": 124,
				"h": 108
			},
			"sourceSize": {
				"w": 124,
				"h": 108
			}
		},
		"excalibur.png": {
			"frame": {
				"x": 505,
				"y": 221,
				"w": 124,
				"h": 108
			},
			"rotated": false,
			"trimmed": false,
			"spriteSourceSize": {
				"x": 0,
				"y": 0,
				"w": 124,
				"h": 108
			},
			"sourceSize": {
				"w": 124,
				"h": 108
			}
		},
		"fomoraig.png": {
			"frame": {
				"x": 631,
				"y": 221,
				"w": 124,
				"h": 108
			},
			"rotated": false,
			"trimmed": false,
			"spriteSourceSize": {
				"x": 0,
				"y": 0,
				"w": 124,
				"h": 108
			},
			"sourceSize": {
				"w": 124,
				"h": 108
			}
		},
		"giermek.png": {
			"frame": {
				"x": 757,
				"y": 221,
				"w": 124,
				"h": 108
			},
			"rotated": false,
			"trimmed": false,
			"spriteSourceSize": {
				"x": 0,
				"y": 0,
				"w": 124,
				"h": 108
			},
			"sourceSize": {
				"w": 124,
				"h": 108
			}
		},
		"gliniana-tabliczka.png": {
			"frame": {
				"x": 883,
				"y": 221,
				"w": 124,
				"h": 108
			},
			"rotated": false,
			"trimmed": false,
			"spriteSourceSize": {
				"x": 0,
				"y": 0,
				"w": 124,
				"h": 108
			},
			"sourceSize": {
				"w": 124,
				"h": 108
			}
		},
		"gnom.png": {
			"frame": {
				"x": 1009,
				"y": 221,
				"w": 124,
				"h": 109
			},
			"rotated": false,
			"trimmed": false,
			"spriteSourceSize": {
				"x": 0,
				"y": 0,
				"w": 124,
				"h": 109
			},
			"sourceSize": {
				"w": 124,
				"h": 109
			}
		},
		"godzina-duchow.png": {
			"frame": {
				"x": 1135,
				"y": 221,
				"w": 124,
				"h": 108
			},
			"rotated": false,
			"trimmed": false,
			"spriteSourceSize": {
				"x": 0,
				"y": 0,
				"w": 124,
				"h": 108
			},
			"sourceSize": {
				"w": 124,
				"h": 108
			}
		},
		"grota.png": {
			"frame": {
				"x": 1,
				"y": 331,
				"w": 124,
				"h": 108
			},
			"rotated": false,
			"trimmed": false,
			"spriteSourceSize": {
				"x": 0,
				"y": 0,
				"w": 124,
				"h": 108
			},
			"sourceSize": {
				"w": 124,
				"h": 108
			}
		},
		"hadron.png": {
			"frame": {
				"x": 127,
				"y": 331,
				"w": 124,
				"h": 108
			},
			"rotated": false,
			"trimmed": false,
			"spriteSourceSize": {
				"x": 0,
				"y": 0,
				"w": 124,
				"h": 108
			},
			"sourceSize": {
				"w": 124,
				"h": 108
			}
		},
		"helm.png": {
			"frame": {
				"x": 253,
				"y": 331,
				"w": 124,
				"h": 108
			},
			"rotated": false,
			"trimmed": false,
			"spriteSourceSize": {
				"x": 0,
				"y": 0,
				"w": 124,
				"h": 108
			},
			"sourceSize": {
				"w": 124,
				"h": 108
			}
		},
		"jablko-natchnienia.png": {
			"frame": {
				"x": 379,
				"y": 331,
				"w": 124,
				"h": 108
			},
			"rotated": false,
			"trimmed": false,
			"spriteSourceSize": {
				"x": 0,
				"y": 0,
				"w": 124,
				"h": 108
			},
			"sourceSize": {
				"w": 124,
				"h": 108
			}
		},
		"jednorozec.png": {
			"frame": {
				"x": 505,
				"y": 331,
				"w": 124,
				"h": 108
			},
			"rotated": false,
			"trimmed": false,
			"spriteSourceSize": {
				"x": 0,
				"y": 0,
				"w": 124,
				"h": 108
			},
			"sourceSize": {
				"w": 124,
				"h": 108
			}
		},
		"jezioro-magiczne.png": {
			"frame": {
				"x": 631,
				"y": 331,
				"w": 124,
				"h": 108
			},
			"rotated": false,
			"trimmed": false,
			"spriteSourceSize": {
				"x": 0,
				"y": 0,
				"w": 124,
				"h": 108
			},
			"sourceSize": {
				"w": 124,
				"h": 108
			}
		},
		"kapliczka-nemed.png": {
			"frame": {
				"x": 757,
				"y": 331,
				"w": 124,
				"h": 108
			},
			"rotated": false,
			"trimmed": false,
			"spriteSourceSize": {
				"x": 0,
				"y": 0,
				"w": 124,
				"h": 108
			},
			"sourceSize": {
				"w": 124,
				"h": 108
			}
		},
		"kapliczka-tolimana.png": {
			"frame": {
				"x": 883,
				"y": 331,
				"w": 124,
				"h": 108
			},
			"rotated": false,
			"trimmed": false,
			"spriteSourceSize": {
				"x": 0,
				"y": 0,
				"w": 124,
				"h": 108
			},
			"sourceSize": {
				"w": 124,
				"h": 108
			}
		},
		"kij-i-sznur.png": {
			"frame": {
				"x": 1135,
				"y": 331,
				"w": 124,
				"h": 108
			},
			"rotated": false,
			"trimmed": false,
			"spriteSourceSize": {
				"x": 0,
				"y": 0,
				"w": 124,
				"h": 108
			},
			"sourceSize": {
				"w": 124,
				"h": 108
			}
		},
		"kometa.png": {
			"frame": {
				"x": 1,
				"y": 441,
				"w": 124,
				"h": 108
			},
			"rotated": false,
			"trimmed": false,
			"spriteSourceSize": {
				"x": 0,
				"y": 0,
				"w": 124,
				"h": 108
			},
			"sourceSize": {
				"w": 124,
				"h": 108
			}
		},
		"kon.png": {
			"frame": {
				"x": 127,
				"y": 441,
				"w": 124,
				"h": 108
			},
			"rotated": false,
			"trimmed": false,
			"spriteSourceSize": {
				"x": 0,
				"y": 0,
				"w": 124,
				"h": 108
			},
			"sourceSize": {
				"w": 124,
				"h": 108
			}
		},
		"koszmar.png": {
			"frame": {
				"x": 253,
				"y": 441,
				"w": 124,
				"h": 108
			},
			"rotated": false,
			"trimmed": false,
			"spriteSourceSize": {
				"x": 0,
				"y": 0,
				"w": 124,
				"h": 108
			},
			"sourceSize": {
				"w": 124,
				"h": 108
			}
		},
		"krol-lasu.png": {
			"frame": {
				"x": 379,
				"y": 441,
				"w": 124,
				"h": 108
			},
			"rotated": false,
			"trimmed": false,
			"spriteSourceSize": {
				"x": 0,
				"y": 0,
				"w": 124,
				"h": 108
			},
			"sourceSize": {
				"w": 124,
				"h": 108
			}
		},
		"krysztal-losu.png": {
			"frame": {
				"x": 505,
				"y": 441,
				"w": 124,
				"h": 108
			},
			"rotated": false,
			"trimmed": false,
			"spriteSourceSize": {
				"x": 0,
				"y": 0,
				"w": 124,
				"h": 108
			},
			"sourceSize": {
				"w": 124,
				"h": 108
			}
		},
		"krysztal-magow.png": {
			"frame": {
				"x": 631,
				"y": 441,
				"w": 124,
				"h": 108
			},
			"rotated": false,
			"trimmed": false,
			"spriteSourceSize": {
				"x": 0,
				"y": 0,
				"w": 124,
				"h": 108
			},
			"sourceSize": {
				"w": 124,
				"h": 108
			}
		},
		"krzyzowiec.png": {
			"frame": {
				"x": 757,
				"y": 441,
				"w": 124,
				"h": 108
			},
			"rotated": false,
			"trimmed": false,
			"spriteSourceSize": {
				"x": 0,
				"y": 0,
				"w": 124,
				"h": 108
			},
			"sourceSize": {
				"w": 124,
				"h": 108
			}
		},
		"ksiaze-demonow.png": {
			"frame": {
				"x": 883,
				"y": 441,
				"w": 124,
				"h": 108
			},
			"rotated": false,
			"trimmed": false,
			"spriteSourceSize": {
				"x": 0,
				"y": 0,
				"w": 124,
				"h": 108
			},
			"sourceSize": {
				"w": 124,
				"h": 108
			}
		},
		"ksiezniczka.png": {
			"frame": {
				"x": 1009,
				"y": 441,
				"w": 124,
				"h": 108
			},
			"rotated": false,
			"trimmed": false,
			"spriteSourceSize": {
				"x": 0,
				"y": 0,
				"w": 124,
				"h": 108
			},
			"sourceSize": {
				"w": 124,
				"h": 108
			}
		},
		"kuglarz.png": {
			"frame": {
				"x": 1135,
				"y": 441,
				"w": 124,
				"h": 108
			},
			"rotated": false,
			"trimmed": false,
			"spriteSourceSize": {
				"x": 0,
				"y": 0,
				"w": 124,
				"h": 108
			},
			"sourceSize": {
				"w": 124,
				"h": 108
			}
		},
		"labirynt.png": {
			"frame": {
				"x": 1,
				"y": 551,
				"w": 124,
				"h": 108
			},
			"rotated": false,
			"trimmed": false,
			"spriteSourceSize": {
				"x": 0,
				"y": 0,
				"w": 124,
				"h": 108
			},
			"sourceSize": {
				"w": 124,
				"h": 108
			}
		},
		"latarnia.png": {
			"frame": {
				"x": 127,
				"y": 551,
				"w": 124,
				"h": 108
			},
			"rotated": false,
			"trimmed": false,
			"spriteSourceSize": {
				"x": 0,
				"y": 0,
				"w": 124,
				"h": 108
			},
			"sourceSize": {
				"w": 124,
				"h": 108
			}
		},
		"lewiatan.png": {
			"frame": {
				"x": 253,
				"y": 551,
				"w": 124,
				"h": 108
			},
			"rotated": false,
			"trimmed": false,
			"spriteSourceSize": {
				"x": 0,
				"y": 0,
				"w": 124,
				"h": 108
			},
			"sourceSize": {
				"w": 124,
				"h": 108
			}
		},
		"lodz.png": {
			"frame": {
				"x": 379,
				"y": 551,
				"w": 124,
				"h": 108
			},
			"rotated": false,
			"trimmed": false,
			"spriteSourceSize": {
				"x": 0,
				"y": 0,
				"w": 124,
				"h": 108
			},
			"sourceSize": {
				"w": 124,
				"h": 108
			}
		},
		"los.png": {
			"frame": {
				"x": 505,
				"y": 551,
				"w": 124,
				"h": 108
			},
			"rotated": false,
			"trimmed": false,
			"spriteSourceSize": {
				"x": 0,
				"y": 0,
				"w": 124,
				"h": 108
			},
			"sourceSize": {
				"w": 124,
				"h": 108
			}
		},
		"magiczna-sakwa.png": {
			"frame": {
				"x": 631,
				"y": 551,
				"w": 124,
				"h": 108
			},
			"rotated": false,
			"trimmed": false,
			"spriteSourceSize": {
				"x": 0,
				"y": 0,
				"w": 124,
				"h": 108
			},
			"sourceSize": {
				"w": 124,
				"h": 108
			}
		},
		"magiczna-tablica.png": {
			"frame": {
				"x": 757,
				"y": 551,
				"w": 124,
				"h": 108
			},
			"rotated": false,
			"trimmed": false,
			"spriteSourceSize": {
				"x": 0,
				"y": 0,
				"w": 124,
				"h": 108
			},
			"sourceSize": {
				"w": 124,
				"h": 108
			}
		},
		"magiczny-manuskrypt.png": {
			"frame": {
				"x": 883,
				"y": 551,
				"w": 124,
				"h": 108
			},
			"rotated": false,
			"trimmed": false,
			"spriteSourceSize": {
				"x": 0,
				"y": 0,
				"w": 124,
				"h": 108
			},
			"sourceSize": {
				"w": 124,
				"h": 108
			}
		},
		"magiczny-miecz.png": {
			"frame": {
				"x": 1009,
				"y": 551,
				"w": 124,
				"h": 108
			},
			"rotated": false,
			"trimmed": false,
			"spriteSourceSize": {
				"x": 0,
				"y": 0,
				"w": 124,
				"h": 108
			},
			"sourceSize": {
				"w": 124,
				"h": 108
			}
		},
		"medrzec.png": {
			"frame": {
				"x": 1135,
				"y": 551,
				"w": 124,
				"h": 108
			},
			"rotated": false,
			"trimmed": false,
			"spriteSourceSize": {
				"x": 0,
				"y": 0,
				"w": 124,
				"h": 108
			},
			"sourceSize": {
				"w": 124,
				"h": 108
			}
		},
		"mgla.png": {
			"frame": {
				"x": 1,
				"y": 661,
				"w": 124,
				"h": 108
			},
			"rotated": false,
			"trimmed": false,
			"spriteSourceSize": {
				"x": 0,
				"y": 0,
				"w": 124,
				"h": 108
			},
			"sourceSize": {
				"w": 124,
				"h": 108
			}
		},
		"miecz.png": {
			"frame": {
				"x": 127,
				"y": 661,
				"w": 124,
				"h": 108
			},
			"rotated": false,
			"trimmed": false,
			"spriteSourceSize": {
				"x": 0,
				"y": 0,
				"w": 124,
				"h": 108
			},
			"sourceSize": {
				"w": 124,
				"h": 108
			}
		},
		"miecz-chaosu.png": {
			"frame": {
				"x": 253,
				"y": 661,
				"w": 124,
				"h": 108
			},
			"rotated": false,
			"trimmed": false,
			"spriteSourceSize": {
				"x": 0,
				"y": 0,
				"w": 124,
				"h": 108
			},
			"sourceSize": {
				"w": 124,
				"h": 108
			}
		},
		"mul.png": {
			"frame": {
				"x": 379,
				"y": 661,
				"w": 124,
				"h": 111
			},
			"rotated": false,
			"trimmed": false,
			"spriteSourceSize": {
				"x": 0,
				"y": 0,
				"w": 124,
				"h": 111
			},
			"sourceSize": {
				"w": 124,
				"h": 111
			}
		},
		"najemnik.png": {
			"frame": {
				"x": 505,
				"y": 661,
				"w": 124,
				"h": 108
			},
			"rotated": false,
			"trimmed": false,
			"spriteSourceSize": {
				"x": 0,
				"y": 0,
				"w": 124,
				"h": 108
			},
			"sourceSize": {
				"w": 124,
				"h": 108
			}
		},
		"niedzwiedz.png": {
			"frame": {
				"x": 631,
				"y": 661,
				"w": 124,
				"h": 108
			},
			"rotated": false,
			"trimmed": false,
			"spriteSourceSize": {
				"x": 0,
				"y": 0,
				"w": 124,
				"h": 108
			},
			"sourceSize": {
				"w": 124,
				"h": 108
			}
		},
		"nieznana-swiatynia.png": {
			"frame": {
				"x": 757,
				"y": 661,
				"w": 124,
				"h": 108
			},
			"rotated": false,
			"trimmed": false,
			"spriteSourceSize": {
				"x": 0,
				"y": 0,
				"w": 124,
				"h": 108
			},
			"sourceSize": {
				"w": 124,
				"h": 108
			}
		},
		"nobbin.png": {
			"frame": {
				"x": 883,
				"y": 661,
				"w": 124,
				"h": 108
			},
			"rotated": false,
			"trimmed": false,
			"spriteSourceSize": {
				"x": 0,
				"y": 0,
				"w": 124,
				"h": 108
			},
			"sourceSize": {
				"w": 124,
				"h": 108
			}
		},
		"opiekun.png": {
			"frame": {
				"x": 1009,
				"y": 661,
				"w": 124,
				"h": 109
			},
			"rotated": false,
			"trimmed": false,
			"spriteSourceSize": {
				"x": 0,
				"y": 0,
				"w": 124,
				"h": 109
			},
			"sourceSize": {
				"w": 124,
				"h": 109
			}
		},
		"owoc-jarzebiny-wiedzy.png": {
			"frame": {
				"x": 1135,
				"y": 661,
				"w": 124,
				"h": 108
			},
			"rotated": false,
			"trimmed": false,
			"spriteSourceSize": {
				"x": 0,
				"y": 0,
				"w": 124,
				"h": 108
			},
			"sourceSize": {
				"w": 124,
				"h": 108
			}
		},
		"pasterz.png": {
			"frame": {
				"x": 1,
				"y": 771,
				"w": 124,
				"h": 109
			},
			"rotated": false,
			"trimmed": false,
			"spriteSourceSize": {
				"x": 0,
				"y": 0,
				"w": 124,
				"h": 109
			},
			"sourceSize": {
				"w": 124,
				"h": 109
			}
		},
		"pierscien-mocy.png": {
			"frame": {
				"x": 127,
				"y": 771,
				"w": 124,
				"h": 108
			},
			"rotated": false,
			"trimmed": false,
			"spriteSourceSize": {
				"x": 0,
				"y": 0,
				"w": 124,
				"h": 108
			},
			"sourceSize": {
				"w": 124,
				"h": 108
			}
		},
		"polbog.png": {
			"frame": {
				"x": 253,
				"y": 771,
				"w": 124,
				"h": 108
			},
			"rotated": false,
			"trimmed": false,
			"spriteSourceSize": {
				"x": 0,
				"y": 0,
				"w": 124,
				"h": 108
			},
			"sourceSize": {
				"w": 124,
				"h": 108
			}
		},
		"poludnica.png": {
			"frame": {
				"x": 505,
				"y": 771,
				"w": 124,
				"h": 108
			},
			"rotated": false,
			"trimmed": false,
			"spriteSourceSize": {
				"x": 0,
				"y": 0,
				"w": 124,
				"h": 108
			},
			"sourceSize": {
				"w": 124,
				"h": 108
			}
		},
		"poslancy-bogow.png": {
			"frame": {
				"x": 631,
				"y": 771,
				"w": 124,
				"h": 108
			},
			"rotated": false,
			"trimmed": false,
			"spriteSourceSize": {
				"x": 0,
				"y": 0,
				"w": 124,
				"h": 108
			},
			"sourceSize": {
				"w": 124,
				"h": 108
			}
		},
		"poszukiwacz-przygod.png": {
			"frame": {
				"x": 757,
				"y": 771,
				"w": 124,
				"h": 109
			},
			"rotated": false,
			"trimmed": false,
			"spriteSourceSize": {
				"x": 0,
				"y": 0,
				"w": 124,
				"h": 109
			},
			"sourceSize": {
				"w": 124,
				"h": 109
			}
		},
		"przesilenie.png": {
			"frame": {
				"x": 883,
				"y": 771,
				"w": 124,
				"h": 108
			},
			"rotated": false,
			"trimmed": false,
			"spriteSourceSize": {
				"x": 0,
				"y": 0,
				"w": 124,
				"h": 108
			},
			"sourceSize": {
				"w": 124,
				"h": 108
			}
		},
		"przewodnik.png": {
			"frame": {
				"x": 1135,
				"y": 771,
				"w": 124,
				"h": 109
			},
			"rotated": false,
			"trimmed": false,
			"spriteSourceSize": {
				"x": 0,
				"y": 0,
				"w": 124,
				"h": 109
			},
			"sourceSize": {
				"w": 124,
				"h": 109
			}
		},
		"przewoznik.png": {
			"frame": {
				"x": 1,
				"y": 882,
				"w": 124,
				"h": 108
			},
			"rotated": false,
			"trimmed": false,
			"spriteSourceSize": {
				"x": 0,
				"y": 0,
				"w": 124,
				"h": 108
			},
			"sourceSize": {
				"w": 124,
				"h": 108
			}
		},
		"przybysz-z-krainy-cieni.png": {
			"frame": {
				"x": 127,
				"y": 882,
				"w": 124,
				"h": 108
			},
			"rotated": false,
			"trimmed": false,
			"spriteSourceSize": {
				"x": 0,
				"y": 0,
				"w": 124,
				"h": 108
			},
			"sourceSize": {
				"w": 124,
				"h": 108
			}
		},
		"rekawice.png": {
			"frame": {
				"x": 253,
				"y": 882,
				"w": 124,
				"h": 108
			},
			"rotated": false,
			"trimmed": false,
			"spriteSourceSize": {
				"x": 0,
				"y": 0,
				"w": 124,
				"h": 108
			},
			"sourceSize": {
				"w": 124,
				"h": 108
			}
		},
		"relikwiarz.png": {
			"frame": {
				"x": 379,
				"y": 882,
				"w": 124,
				"h": 109
			},
			"rotated": false,
			"trimmed": false,
			"spriteSourceSize": {
				"x": 0,
				"y": 0,
				"w": 124,
				"h": 109
			},
			"sourceSize": {
				"w": 124,
				"h": 109
			}
		},
		"rozdzka-przeznaczenia.png": {
			"frame": {
				"x": 505,
				"y": 882,
				"w": 124,
				"h": 109
			},
			"rotated": false,
			"trimmed": false,
			"spriteSourceSize": {
				"x": 0,
				"y": 0,
				"w": 124,
				"h": 109
			},
			"sourceSize": {
				"w": 124,
				"h": 109
			}
		},
		"rozdzka-zaklec.png": {
			"frame": {
				"x": 631,
				"y": 882,
				"w": 124,
				"h": 109
			},
			"rotated": false,
			"trimmed": false,
			"spriteSourceSize": {
				"x": 0,
				"y": 0,
				"w": 124,
				"h": 109
			},
			"sourceSize": {
				"w": 124,
				"h": 109
			}
		},
		"rusalka.png": {
			"frame": {
				"x": 757,
				"y": 882,
				"w": 124,
				"h": 108
			},
			"rotated": false,
			"trimmed": false,
			"spriteSourceSize": {
				"x": 0,
				"y": 0,
				"w": 124,
				"h": 108
			},
			"sourceSize": {
				"w": 124,
				"h": 108
			}
		},
		"rycerz.png": {
			"frame": {
				"x": 883,
				"y": 882,
				"w": 124,
				"h": 108
			},
			"rotated": false,
			"trimmed": false,
			"spriteSourceSize": {
				"x": 0,
				"y": 0,
				"w": 124,
				"h": 108
			},
			"sourceSize": {
				"w": 124,
				"h": 108
			}
		},
		"sabat-czarownic.png": {
			"frame": {
				"x": 1009,
				"y": 882,
				"w": 124,
				"h": 108
			},
			"rotated": false,
			"trimmed": false,
			"spriteSourceSize": {
				"x": 0,
				"y": 0,
				"w": 124,
				"h": 108
			},
			"sourceSize": {
				"w": 124,
				"h": 108
			}
		},
		"sidh.png": {
			"frame": {
				"x": 1135,
				"y": 882,
				"w": 124,
				"h": 108
			},
			"rotated": false,
			"trimmed": false,
			"spriteSourceSize": {
				"x": 0,
				"y": 0,
				"w": 124,
				"h": 108
			},
			"sourceSize": {
				"w": 124,
				"h": 108
			}
		},
		"skalne-wrota.png": {
			"frame": {
				"x": 1,
				"y": 992,
				"w": 124,
				"h": 109
			},
			"rotated": false,
			"trimmed": false,
			"spriteSourceSize": {
				"x": 0,
				"y": 0,
				"w": 124,
				"h": 109
			},
			"sourceSize": {
				"w": 124,
				"h": 109
			}
		},
		"slup-ognia.png": {
			"frame": {
				"x": 127,
				"y": 992,
				"w": 124,
				"h": 108
			},
			"rotated": false,
			"trimmed": false,
			"spriteSourceSize": {
				"x": 0,
				"y": 0,
				"w": 124,
				"h": 108
			},
			"sourceSize": {
				"w": 124,
				"h": 108
			}
		},
		"smok.png": {
			"frame": {
				"x": 253,
				"y": 992,
				"w": 124,
				"h": 108
			},
			"rotated": false,
			"trimmed": false,
			"spriteSourceSize": {
				"x": 0,
				"y": 0,
				"w": 124,
				"h": 108
			},
			"sourceSize": {
				"w": 124,
				"h": 108
			}
		},
		"sniezne-monstrum.png": {
			"frame": {
				"x": 757,
				"y": 992,
				"w": 124,
				"h": 108
			},
			"rotated": false,
			"trimmed": false,
			"spriteSourceSize": {
				"x": 0,
				"y": 0,
				"w": 124,
				"h": 108
			},
			"sourceSize": {
				"w": 124,
				"h": 108
			}
		},
		"sobowtor.png": {
			"frame": {
				"x": 883,
				"y": 992,
				"w": 124,
				"h": 108
			},
			"rotated": false,
			"trimmed": false,
			"spriteSourceSize": {
				"x": 0,
				"y": 0,
				"w": 124,
				"h": 108
			},
			"sourceSize": {
				"w": 124,
				"h": 108
			}
		},
		"spalona-ziemia.png": {
			"frame": {
				"x": 1009,
				"y": 992,
				"w": 124,
				"h": 109
			},
			"rotated": false,
			"trimmed": false,
			"spriteSourceSize": {
				"x": 0,
				"y": 0,
				"w": 124,
				"h": 109
			},
			"sourceSize": {
				"w": 124,
				"h": 109
			}
		},
		"srebrna-strzala.png": {
			"frame": {
				"x": 1135,
				"y": 992,
				"w": 124,
				"h": 109
			},
			"rotated": false,
			"trimmed": false,
			"spriteSourceSize": {
				"x": 0,
				"y": 0,
				"w": 124,
				"h": 109
			},
			"sourceSize": {
				"w": 124,
				"h": 109
			}
		},
		"straz.png": {
			"frame": {
				"x": 1,
				"y": 1103,
				"w": 124,
				"h": 108
			},
			"rotated": false,
			"trimmed": false,
			"spriteSourceSize": {
				"x": 0,
				"y": 0,
				"w": 124,
				"h": 108
			},
			"sourceSize": {
				"w": 124,
				"h": 108
			}
		},
		"strzyga.png": {
			"frame": {
				"x": 127,
				"y": 1103,
				"w": 124,
				"h": 108
			},
			"rotated": false,
			"trimmed": false,
			"spriteSourceSize": {
				"x": 0,
				"y": 0,
				"w": 124,
				"h": 108
			},
			"sourceSize": {
				"w": 124,
				"h": 108
			}
		},
		"swieta-wlocznia.png": {
			"frame": {
				"x": 253,
				"y": 1103,
				"w": 124,
				"h": 108
			},
			"rotated": false,
			"trimmed": false,
			"spriteSourceSize": {
				"x": 0,
				"y": 0,
				"w": 124,
				"h": 108
			},
			"sourceSize": {
				"w": 124,
				"h": 108
			}
		},
		"swiety-graal.png": {
			"frame": {
				"x": 379,
				"y": 1103,
				"w": 124,
				"h": 109
			},
			"rotated": false,
			"trimmed": false,
			"spriteSourceSize": {
				"x": 0,
				"y": 0,
				"w": 124,
				"h": 109
			},
			"sourceSize": {
				"w": 124,
				"h": 109
			}
		},
		"sztukmistrz.png": {
			"frame": {
				"x": 1261,
				"y": 111,
				"w": 123,
				"h": 108
			},
			"rotated": false,
			"trimmed": false,
			"spriteSourceSize": {
				"x": 0,
				"y": 0,
				"w": 123,
				"h": 108
			},
			"sourceSize": {
				"w": 123,
				"h": 108
			}
		},
		"sztylet.png": {
			"frame": {
				"x": 505,
				"y": 1103,
				"w": 124,
				"h": 108
			},
			"rotated": false,
			"trimmed": false,
			"spriteSourceSize": {
				"x": 0,
				"y": 0,
				"w": 124,
				"h": 108
			},
			"sourceSize": {
				"w": 124,
				"h": 108
			}
		},
		"tajemna-sakwa.png": {
			"frame": {
				"x": 631,
				"y": 1103,
				"w": 124,
				"h": 108
			},
			"rotated": false,
			"trimmed": false,
			"spriteSourceSize": {
				"x": 0,
				"y": 0,
				"w": 124,
				"h": 108
			},
			"sourceSize": {
				"w": 124,
				"h": 108
			}
		},
		"tajemne-przejscie.png": {
			"frame": {
				"x": 757,
				"y": 1103,
				"w": 124,
				"h": 109
			},
			"rotated": false,
			"trimmed": false,
			"spriteSourceSize": {
				"x": 0,
				"y": 0,
				"w": 124,
				"h": 109
			},
			"sourceSize": {
				"w": 124,
				"h": 109
			}
		},
		"tajemnicza-szkatula.png": {
			"frame": {
				"x": 883,
				"y": 1103,
				"w": 124,
				"h": 108
			},
			"rotated": false,
			"trimmed": false,
			"spriteSourceSize": {
				"x": 0,
				"y": 0,
				"w": 124,
				"h": 108
			},
			"sourceSize": {
				"w": 124,
				"h": 108
			}
		},
		"talizman-ognia.png": {
			"frame": {
				"x": 1009,
				"y": 1103,
				"w": 124,
				"h": 108
			},
			"rotated": false,
			"trimmed": false,
			"spriteSourceSize": {
				"x": 0,
				"y": 0,
				"w": 124,
				"h": 108
			},
			"sourceSize": {
				"w": 124,
				"h": 108
			}
		},
		"talizman-powietrza.png": {
			"frame": {
				"x": 1135,
				"y": 1103,
				"w": 124,
				"h": 108
			},
			"rotated": false,
			"trimmed": false,
			"spriteSourceSize": {
				"x": 0,
				"y": 0,
				"w": 124,
				"h": 108
			},
			"sourceSize": {
				"w": 124,
				"h": 108
			}
		},
		"tarcza.png": {
			"frame": {
				"x": 1,
				"y": 1213,
				"w": 124,
				"h": 108
			},
			"rotated": false,
			"trimmed": false,
			"spriteSourceSize": {
				"x": 0,
				"y": 0,
				"w": 124,
				"h": 108
			},
			"sourceSize": {
				"w": 124,
				"h": 108
			}
		},
		"tarcza-boga-tolimana.png": {
			"frame": {
				"x": 127,
				"y": 1213,
				"w": 124,
				"h": 108
			},
			"rotated": false,
			"trimmed": false,
			"spriteSourceSize": {
				"x": 0,
				"y": 0,
				"w": 124,
				"h": 108
			},
			"sourceSize": {
				"w": 124,
				"h": 108
			}
		},
		"targowisko.png": {
			"frame": {
				"x": 253,
				"y": 1213,
				"w": 124,
				"h": 109
			},
			"rotated": false,
			"trimmed": false,
			"spriteSourceSize": {
				"x": 0,
				"y": 0,
				"w": 124,
				"h": 109
			},
			"sourceSize": {
				"w": 124,
				"h": 109
			}
		},
		"topor-swiatla-i-ciemnosci.png": {
			"frame": {
				"x": 505,
				"y": 1213,
				"w": 124,
				"h": 108
			},
			"rotated": false,
			"trimmed": false,
			"spriteSourceSize": {
				"x": 0,
				"y": 0,
				"w": 124,
				"h": 108
			},
			"sourceSize": {
				"w": 124,
				"h": 108
			}
		},
		"tragarz.png": {
			"frame": {
				"x": 631,
				"y": 1213,
				"w": 124,
				"h": 108
			},
			"rotated": false,
			"trimmed": false,
			"spriteSourceSize": {
				"x": 0,
				"y": 0,
				"w": 124,
				"h": 108
			},
			"sourceSize": {
				"w": 124,
				"h": 108
			}
		},
		"trojglowy-smok.png": {
			"frame": {
				"x": 883,
				"y": 1213,
				"w": 124,
				"h": 108
			},
			"rotated": false,
			"trimmed": false,
			"spriteSourceSize": {
				"x": 0,
				"y": 0,
				"w": 124,
				"h": 108
			},
			"sourceSize": {
				"w": 124,
				"h": 108
			}
		},
		"turniej-rycerski.png": {
			"frame": {
				"x": 1009,
				"y": 1213,
				"w": 124,
				"h": 108
			},
			"rotated": false,
			"trimmed": false,
			"spriteSourceSize": {
				"x": 0,
				"y": 0,
				"w": 124,
				"h": 108
			},
			"sourceSize": {
				"w": 124,
				"h": 108
			}
		},
		"uklad-planet.png": {
			"frame": {
				"x": 1135,
				"y": 1213,
				"w": 124,
				"h": 108
			},
			"rotated": false,
			"trimmed": false,
			"spriteSourceSize": {
				"x": 0,
				"y": 0,
				"w": 124,
				"h": 108
			},
			"sourceSize": {
				"w": 124,
				"h": 108
			}
		},
		"upior.png": {
			"frame": {
				"x": 1384,
				"y": 1,
				"w": 124,
				"h": 108
			},
			"rotated": false,
			"trimmed": false,
			"spriteSourceSize": {
				"x": 0,
				"y": 0,
				"w": 124,
				"h": 108
			},
			"sourceSize": {
				"w": 124,
				"h": 108
			}
		},
		"urocza-diablica.png": {
			"frame": {
				"x": 1386,
				"y": 111,
				"w": 124,
				"h": 108
			},
			"rotated": false,
			"trimmed": false,
			"spriteSourceSize": {
				"x": 0,
				"y": 0,
				"w": 124,
				"h": 108
			},
			"sourceSize": {
				"w": 124,
				"h": 108
			}
		},
		"wampir.png": {
			"frame": {
				"x": 1261,
				"y": 221,
				"w": 124,
				"h": 108
			},
			"rotated": false,
			"trimmed": false,
			"spriteSourceSize": {
				"x": 0,
				"y": 0,
				"w": 124,
				"h": 108
			},
			"sourceSize": {
				"w": 124,
				"h": 108
			}
		},
		"wedrowiec.png": {
			"frame": {
				"x": 1261,
				"y": 331,
				"w": 124,
				"h": 108
			},
			"rotated": false,
			"trimmed": false,
			"spriteSourceSize": {
				"x": 0,
				"y": 0,
				"w": 124,
				"h": 108
			},
			"sourceSize": {
				"w": 124,
				"h": 108
			}
		},
		"widmo.png": {
			"frame": {
				"x": 1261,
				"y": 441,
				"w": 124,
				"h": 110
			},
			"rotated": false,
			"trimmed": false,
			"spriteSourceSize": {
				"x": 0,
				"y": 0,
				"w": 124,
				"h": 110
			},
			"sourceSize": {
				"w": 124,
				"h": 110
			}
		},
		"wielkolud.png": {
			"frame": {
				"x": 1261,
				"y": 553,
				"w": 124,
				"h": 109
			},
			"rotated": false,
			"trimmed": false,
			"spriteSourceSize": {
				"x": 0,
				"y": 0,
				"w": 124,
				"h": 109
			},
			"sourceSize": {
				"w": 124,
				"h": 109
			}
		},
		"wierzchowiec.png": {
			"frame": {
				"x": 1261,
				"y": 664,
				"w": 124,
				"h": 108
			},
			"rotated": false,
			"trimmed": false,
			"spriteSourceSize": {
				"x": 0,
				"y": 0,
				"w": 124,
				"h": 108
			},
			"sourceSize": {
				"w": 124,
				"h": 108
			}
		},
		"wilk.png": {
			"frame": {
				"x": 1261,
				"y": 774,
				"w": 124,
				"h": 108
			},
			"rotated": false,
			"trimmed": false,
			"spriteSourceSize": {
				"x": 0,
				"y": 0,
				"w": 124,
				"h": 108
			},
			"sourceSize": {
				"w": 124,
				"h": 108
			}
		},
		"wilkolak.png": {
			"frame": {
				"x": 1261,
				"y": 884,
				"w": 124,
				"h": 108
			},
			"rotated": false,
			"trimmed": false,
			"spriteSourceSize": {
				"x": 0,
				"y": 0,
				"w": 124,
				"h": 108
			},
			"sourceSize": {
				"w": 124,
				"h": 108
			}
		},
		"wladca.png": {
			"frame": {
				"x": 1261,
				"y": 994,
				"w": 124,
				"h": 108
			},
			"rotated": false,
			"trimmed": false,
			"spriteSourceSize": {
				"x": 0,
				"y": 0,
				"w": 124,
				"h": 108
			},
			"sourceSize": {
				"w": 124,
				"h": 108
			}
		},
		"wrozka.png": {
			"frame": {
				"x": 1261,
				"y": 1104,
				"w": 124,
				"h": 109
			},
			"rotated": false,
			"trimmed": false,
			"spriteSourceSize": {
				"x": 0,
				"y": 0,
				"w": 124,
				"h": 109
			},
			"sourceSize": {
				"w": 124,
				"h": 109
			}
		},
		"zacmienie-slonc.png": {
			"frame": {
				"x": 379,
				"y": 1215,
				"w": 124,
				"h": 108
			},
			"rotated": false,
			"trimmed": false,
			"spriteSourceSize": {
				"x": 0,
				"y": 0,
				"w": 124,
				"h": 108
			},
			"sourceSize": {
				"w": 124,
				"h": 108
			}
		},
		"zakleta-sciezka.png": {
			"frame": {
				"x": 757,
				"y": 1215,
				"w": 124,
				"h": 111
			},
			"rotated": false,
			"trimmed": false,
			"spriteSourceSize": {
				"x": 0,
				"y": 0,
				"w": 124,
				"h": 111
			},
			"sourceSize": {
				"w": 124,
				"h": 111
			}
		},
		"zaklete-zrodlo.png": {
			"frame": {
				"x": 1261,
				"y": 1215,
				"w": 124,
				"h": 109
			},
			"rotated": false,
			"trimmed": false,
			"spriteSourceSize": {
				"x": 0,
				"y": 0,
				"w": 124,
				"h": 109
			},
			"sourceSize": {
				"w": 124,
				"h": 109
			}
		},
		"zaklinacz-czasu.png": {
			"frame": {
				"x": 1,
				"y": 1326,
				"w": 124,
				"h": 109
			},
			"rotated": false,
			"trimmed": false,
			"spriteSourceSize": {
				"x": 0,
				"y": 0,
				"w": 124,
				"h": 109
			},
			"sourceSize": {
				"w": 124,
				"h": 109
			}
		},
		"zaprzeg.png": {
			"frame": {
				"x": 127,
				"y": 1326,
				"w": 124,
				"h": 108
			},
			"rotated": false,
			"trimmed": false,
			"spriteSourceSize": {
				"x": 0,
				"y": 0,
				"w": 124,
				"h": 108
			},
			"sourceSize": {
				"w": 124,
				"h": 108
			}
		},
		"zaraza.png": {
			"frame": {
				"x": 253,
				"y": 1326,
				"w": 124,
				"h": 108
			},
			"rotated": false,
			"trimmed": false,
			"spriteSourceSize": {
				"x": 0,
				"y": 0,
				"w": 124,
				"h": 108
			},
			"sourceSize": {
				"w": 124,
				"h": 108
			}
		},
		"zasadzka.png": {
			"frame": {
				"x": 379,
				"y": 1326,
				"w": 124,
				"h": 108
			},
			"rotated": false,
			"trimmed": false,
			"spriteSourceSize": {
				"x": 0,
				"y": 0,
				"w": 124,
				"h": 108
			},
			"sourceSize": {
				"w": 124,
				"h": 108
			}
		},
		"zatrute-ziola.png": {
			"frame": {
				"x": 505,
				"y": 1326,
				"w": 124,
				"h": 108
			},
			"rotated": false,
			"trimmed": false,
			"spriteSourceSize": {
				"x": 0,
				"y": 0,
				"w": 124,
				"h": 108
			},
			"sourceSize": {
				"w": 124,
				"h": 108
			}
		},
		"zbroja.png": {
			"frame": {
				"x": 631,
				"y": 1326,
				"w": 124,
				"h": 108
			},
			"rotated": false,
			"trimmed": false,
			"spriteSourceSize": {
				"x": 0,
				"y": 0,
				"w": 124,
				"h": 108
			},
			"sourceSize": {
				"w": 124,
				"h": 108
			}
		},
		"zjawa.png": {
			"frame": {
				"x": 883,
				"y": 1326,
				"w": 124,
				"h": 108
			},
			"rotated": false,
			"trimmed": false,
			"spriteSourceSize": {
				"x": 0,
				"y": 0,
				"w": 124,
				"h": 108
			},
			"sourceSize": {
				"w": 124,
				"h": 108
			}
		},
		"zloczynca.png": {
			"frame": {
				"x": 1009,
				"y": 1326,
				"w": 124,
				"h": 108
			},
			"rotated": false,
			"trimmed": false,
			"spriteSourceSize": {
				"x": 0,
				"y": 0,
				"w": 124,
				"h": 108
			},
			"sourceSize": {
				"w": 124,
				"h": 108
			}
		},
		"zlodziej-dobroczynca.png": {
			"frame": {
				"x": 1135,
				"y": 1326,
				"w": 124,
				"h": 109
			},
			"rotated": false,
			"trimmed": false,
			"spriteSourceSize": {
				"x": 0,
				"y": 0,
				"w": 124,
				"h": 109
			},
			"sourceSize": {
				"w": 124,
				"h": 109
			}
		},
		"zly-duch.png": {
			"frame": {
				"x": 1261,
				"y": 1326,
				"w": 124,
				"h": 108
			},
			"rotated": false,
			"trimmed": false,
			"spriteSourceSize": {
				"x": 0,
				"y": 0,
				"w": 124,
				"h": 108
			},
			"sourceSize": {
				"w": 124,
				"h": 108
			}
		},
		"zwierciadlo-zniszczenia.png": {
			"frame": {
				"x": 1510,
				"y": 1,
				"w": 124,
				"h": 108
			},
			"rotated": false,
			"trimmed": false,
			"spriteSourceSize": {
				"x": 0,
				"y": 0,
				"w": 124,
				"h": 108
			},
			"sourceSize": {
				"w": 124,
				"h": 108
			}
		}
	},
	"meta": {
		"app": "http://www.codeandweb.com/texturepacker",
		"version": "1.0",
		"image": "events.png",
		"format": "RGBA8888",
		"size": {
			"w": 1635,
			"h": 1436
		},
		"scale": "1"
	}
}
