{
	"frames": {
		"armor.png": {
			"frame": {
				"x": 1,
				"y": 1,
				"w": 98,
				"h": 115
			},
			"rotated": false,
			"trimmed": false,
			"spriteSourceSize": {
				"x": 0,
				"y": 0,
				"w": 98,
				"h": 115
			},
			"sourceSize": {
				"w": 98,
				"h": 115
			}
		},
		"attribute-bar.png": {
			"frame": {
				"x": 101,
				"y": 1,
				"w": 331,
				"h": 121
			},
			"rotated": false,
			"trimmed": false,
			"spriteSourceSize": {
				"x": 0,
				"y": 0,
				"w": 331,
				"h": 121
			},
			"sourceSize": {
				"w": 331,
				"h": 121
			}
		},
		"attribute-bar-right.png": {
			"frame": {
				"x": 434,
				"y": 1,
				"w": 331,
				"h": 121
			},
			"rotated": false,
			"trimmed": false,
			"spriteSourceSize": {
				"x": 0,
				"y": 0,
				"w": 331,
				"h": 121
			},
			"sourceSize": {
				"w": 331,
				"h": 121
			}
		},
		"gem.png": {
			"frame": {
				"x": 767,
				"y": 1,
				"w": 122,
				"h": 114
			},
			"rotated": false,
			"trimmed": false,
			"spriteSourceSize": {
				"x": 0,
				"y": 0,
				"w": 122,
				"h": 114
			},
			"sourceSize": {
				"w": 122,
				"h": 114
			}
		},
		"gold.png": {
			"frame": {
				"x": 891,
				"y": 1,
				"w": 119,
				"h": 129
			},
			"rotated": false,
			"trimmed": false,
			"spriteSourceSize": {
				"x": 0,
				"y": 0,
				"w": 119,
				"h": 129
			},
			"sourceSize": {
				"w": 119,
				"h": 129
			}
		},
		"health.png": {
			"frame": {
				"x": 1012,
				"y": 1,
				"w": 115,
				"h": 115
			},
			"rotated": false,
			"trimmed": false,
			"spriteSourceSize": {
				"x": 0,
				"y": 0,
				"w": 115,
				"h": 115
			},
			"sourceSize": {
				"w": 115,
				"h": 115
			}
		},
		"modal-horizontal-body.png": {
			"frame": {
				"x": 1,
				"y": 132,
				"w": 1045,
				"h": 716
			},
			"rotated": false,
			"trimmed": false,
			"spriteSourceSize": {
				"x": 0,
				"y": 0,
				"w": 1045,
				"h": 716
			},
			"sourceSize": {
				"w": 1045,
				"h": 716
			}
		},
		"modal-horizontal-footer.png": {
			"frame": {
				"x": 1,
				"y": 850,
				"w": 714,
				"h": 163
			},
			"rotated": false,
			"trimmed": false,
			"spriteSourceSize": {
				"x": 0,
				"y": 0,
				"w": 714,
				"h": 163
			},
			"sourceSize": {
				"w": 714,
				"h": 163
			}
		},
		"modal-horizontal-header.png": {
			"frame": {
				"x": 1,
				"y": 1015,
				"w": 715,
				"h": 144
			},
			"rotated": false,
			"trimmed": false,
			"spriteSourceSize": {
				"x": 0,
				"y": 0,
				"w": 715,
				"h": 144
			},
			"sourceSize": {
				"w": 715,
				"h": 144
			}
		},
		"modal-vertical-body.png": {
			"frame": {
				"x": 1129,
				"y": 1,
				"w": 613,
				"h": 650
			},
			"rotated": false,
			"trimmed": false,
			"spriteSourceSize": {
				"x": 0,
				"y": 0,
				"w": 613,
				"h": 650
			},
			"sourceSize": {
				"w": 613,
				"h": 650
			}
		},
		"modal-vertical-footer.png": {
			"frame": {
				"x": 1048,
				"y": 653,
				"w": 473,
				"h": 142
			},
			"rotated": false,
			"trimmed": false,
			"spriteSourceSize": {
				"x": 0,
				"y": 0,
				"w": 473,
				"h": 142
			},
			"sourceSize": {
				"w": 473,
				"h": 142
			}
		},
		"modal-vertical-header.png": {
			"frame": {
				"x": 1048,
				"y": 797,
				"w": 667,
				"h": 135
			},
			"rotated": false,
			"trimmed": false,
			"spriteSourceSize": {
				"x": 0,
				"y": 0,
				"w": 667,
				"h": 135
			},
			"sourceSize": {
				"w": 667,
				"h": 135
			}
		},
		"power.png": {
			"frame": {
				"x": 1744,
				"y": 1,
				"w": 115,
				"h": 127
			},
			"rotated": false,
			"trimmed": false,
			"spriteSourceSize": {
				"x": 0,
				"y": 0,
				"w": 115,
				"h": 127
			},
			"sourceSize": {
				"w": 115,
				"h": 127
			}
		},
		"star.png": {
			"frame": {
				"x": 1744,
				"y": 130,
				"w": 130,
				"h": 120
			},
			"rotated": false,
			"trimmed": false,
			"spriteSourceSize": {
				"x": 0,
				"y": 0,
				"w": 130,
				"h": 120
			},
			"sourceSize": {
				"w": 130,
				"h": 120
			}
		}
	},
	"meta": {
		"app": "http://www.codeandweb.com/texturepacker",
		"version": "1.0",
		"image": "windows.png",
		"format": "RGBA8888",
		"size": {
			"w": 1875,
			"h": 1160
		},
		"scale": "1"
	}
}